{
  "chrome": {
    "args": [
      "--no-sandbox",
      ",--disable-setuid-sandbox"
    ],
    "headless": false
  },
  "sqlite": {
    "dbpath": "./scrapper.db"
  },
  "proxies": [{
    "type": "free-proxy.cz",
    "link": "http://free-proxy.cz/en/proxylist/country/DE/all/ping/all/"
  },{
    "type": "free-proxy.cz",
    "link": "http://free-proxy.cz/en/proxylist/country/AT/all/ping/all/"
  },{
    "type": "free-proxy.cz",
    "link": "http://free-proxy.cz/en/proxylist/country/CH/all/ping/all/"
  },
    {
      "type": "free-proxy-list",
      "link": "https://free-proxy-list.net/"
    }
  ],
  "unused_sites" : [{
    "type": "free-proxy.cz",
    "link": "http://free-proxy.cz/en/proxylist/country/all/all/ping/all/"
  }],
  "whoisip_services": ["https://checkip.amazonaws.com/"],
  "data_mining": {
    "link": "https://api.ipdata.co/$1?api-key=$2",
    "api-key": [
      "c51486769b52aa92ba54b61f0db57f9e062033de35314a5decd36ee7",
      "73592f1d21befb2aabc0a25fadf6f522b16ce260b7a1c40d462f1483",
      "be4ccf0834e2d839a06fff81bb5b24a25f82a4a0dca0be7bbca7c5c9",
      "68c4d2643201d64d60dedd57c5928015ea469cc58441ee8eb590a1c8",
      "185643dbecc5d46107f98c40342b683a66fe63843e09e3b6d6710e65",
      "777eecffc16342c723d151695c5ce12139fe9e24a12256ff6f46af6b"
    ]
  }
}
